[
    {
        "model": "looper.customer",
        "pk": 11,
        "fields": {
            "user": 14,
            "full_name": "Harry de B\u00f8ker",
            "company": "\u1002\u102e\u1010 for music",
            "billing_email": "harry+billing@example.com",
            "vat_number": "NL11ABCDEFQQQQ",
            "tax_exempt": true
        }
    },
    {
        "model": "auth.user",
        "pk": 14,
        "fields": {
            "password": "pbkdf2_sha256$120000$D0ntfbr3oxIC$psVajfgHfMs6qvs+TftNjB65uZJCYwdcaI4ViO0P9QQ=",
            "last_login": null,
            "is_superuser": false,
            "username": "harry",
            "first_name": "",
            "last_name": "",
            "email": "harry@blender.org",
            "is_staff": false,
            "is_active": true,
            "date_joined": "2018-09-26T08:10:50Z",
            "groups": [],
            "user_permissions": []
        }
    }
]
